iverilog/adder_1bit.vcd
$date
	Tue May 12 00:01:22 2026
$end
$version
	Icarus Verilog
$end
$timescale
	1ps
$end
$scope module adder_1bit_tb $end
$var wire 1 ! Sum $end
$var wire 1 " Cout $end
$var reg 1 # A $end
$var reg 1 $ B $end
$var reg 1 % Cin $end
$scope module x1 $end
$var wire 1 # A $end
$var wire 1 $ B $end
$var wire 1 % Cin $end
$var wire 1 & GND $end
$var wire 1 ' VDD $end
$var wire 1 ( net5 $end
$var wire 1 ) net4 $end
$var wire 1 * net3 $end
$var wire 1 + net2 $end
$var wire 1 , net1 $end
$var wire 1 - T2 $end
$var wire 1 . T1 $end
$var wire 1 ! Sum $end
$var wire 1 " Cout $end
$scope module x1 $end
$var wire 1 # A $end
$var wire 1 $ B $end
$var wire 1 / VGND $end
$var wire 1 0 VNB $end
$var wire 1 1 VPB $end
$var wire 1 2 VPWR $end
$var wire 1 . Y $end
$var wire 1 3 nand0_out_Y $end
$upscope $end
$scope module x2 $end
$var wire 1 # A $end
$var wire 1 . B $end
$var wire 1 4 VGND $end
$var wire 1 5 VNB $end
$var wire 1 6 VPB $end
$var wire 1 7 VPWR $end
$var wire 1 , Y $end
$var wire 1 8 nand0_out_Y $end
$upscope $end
$scope module x3 $end
$var wire 1 . A $end
$var wire 1 $ B $end
$var wire 1 9 VGND $end
$var wire 1 : VNB $end
$var wire 1 ; VPB $end
$var wire 1 < VPWR $end
$var wire 1 + Y $end
$var wire 1 = nand0_out_Y $end
$upscope $end
$scope module x4 $end
$var wire 1 , A $end
$var wire 1 + B $end
$var wire 1 > VGND $end
$var wire 1 ? VNB $end
$var wire 1 @ VPB $end
$var wire 1 A VPWR $end
$var wire 1 ( Y $end
$var wire 1 B nand0_out_Y $end
$upscope $end
$scope module x5 $end
$var wire 1 ( A $end
$var wire 1 % B $end
$var wire 1 C VGND $end
$var wire 1 D VNB $end
$var wire 1 E VPB $end
$var wire 1 F VPWR $end
$var wire 1 - Y $end
$var wire 1 G nand0_out_Y $end
$upscope $end
$scope module x6 $end
$var wire 1 ( A $end
$var wire 1 - B $end
$var wire 1 H VGND $end
$var wire 1 I VNB $end
$var wire 1 J VPB $end
$var wire 1 K VPWR $end
$var wire 1 * Y $end
$var wire 1 L nand0_out_Y $end
$upscope $end
$scope module x7 $end
$var wire 1 - A $end
$var wire 1 % B $end
$var wire 1 M VGND $end
$var wire 1 N VNB $end
$var wire 1 O VPB $end
$var wire 1 P VPWR $end
$var wire 1 ) Y $end
$var wire 1 Q nand0_out_Y $end
$upscope $end
$scope module x8 $end
$var wire 1 * A $end
$var wire 1 ) B $end
$var wire 1 R VGND $end
$var wire 1 S VNB $end
$var wire 1 T VPB $end
$var wire 1 U VPWR $end
$var wire 1 ! Y $end
$var wire 1 V nand0_out_Y $end
$upscope $end
$scope module x9 $end
$var wire 1 . A $end
$var wire 1 - B $end
$var wire 1 W VGND $end
$var wire 1 X VNB $end
$var wire 1 Y VPB $end
$var wire 1 Z VPWR $end
$var wire 1 " Y $end
$var wire 1 [ nand0_out_Y $end
$upscope $end
$upscope $end
$upscope $end
$enddefinitions $end
#0
$dumpvars
0[
1Z
1Y
0X
0W
0V
1U
1T
0S
0R
1Q
1P
1O
0N
0M
1L
1K
1J
0I
0H
1G
1F
1E
0D
0C
0B
1A
1@
0?
0>
1=
1<
1;
0:
09
18
17
16
05
04
13
12
11
00
0/
1.
1-
1,
1+
1*
1)
0(
z'
z&
0%
0$
0#
0"
0!
$end
#1000
1!
1V
0*
0L
1(
1B
0,
08
1#
#2000
0+
1,
0=
18
1$
0#
#3000
0!
0V
1*
1L
0(
0B
1+
1"
1=
1[
0.
1,
03
18
1#
#4000
1!
0"
1V
0[
0)
1.
0Q
13
1%
0$
0#
#5000
0!
0V
1)
1"
1Q
1[
0-
1*
0G
1L
1(
1B
0,
08
1#
#6000
0+
1,
0=
18
1$
0#
#7000
1!
1V
0)
0Q
1-
1G
0(
0B
1+
1=
0.
1,
03
18
1#
