iverilog/adder_4bit.vcd
$date
	Tue May 12 14:33:13 2026
$end
$version
	Icarus Verilog
$end
$timescale
	1ps
$end
$scope module adder_4bit_tb $end
$var wire 4 ! Sum [3:0] $end
$var wire 1 " Cout $end
$var reg 4 # A [3:0] $end
$var reg 4 $ B [3:0] $end
$var reg 1 % Cin $end
$var reg 5 & expected [4:0] $end
$var integer 32 ' error_count [31:0] $end
$var integer 32 ( i [31:0] $end
$var integer 32 ) j [31:0] $end
$var integer 32 * k [31:0] $end
$scope module x1 $end
$var wire 4 + A [3:0] $end
$var wire 4 , B [3:0] $end
$var wire 1 % Cin $end
$var wire 1 - GND $end
$var wire 1 . VDD $end
$var wire 1 / n3 $end
$var wire 1 0 n2 $end
$var wire 1 1 n1 $end
$var wire 4 2 Sum [3:0] $end
$var wire 1 " Cout $end
$scope module x1 $end
$var wire 1 3 A $end
$var wire 1 4 B $end
$var wire 1 % Cin $end
$var wire 1 - GND $end
$var wire 1 . VDD $end
$var wire 1 5 net5 $end
$var wire 1 6 net4 $end
$var wire 1 7 net3 $end
$var wire 1 8 net2 $end
$var wire 1 9 net1 $end
$var wire 1 : T2 $end
$var wire 1 ; T1 $end
$var wire 1 < Sum $end
$var wire 1 1 Cout $end
$scope module x1 $end
$var wire 1 3 A $end
$var wire 1 4 B $end
$var wire 1 = VGND $end
$var wire 1 > VNB $end
$var wire 1 ? VPB $end
$var wire 1 @ VPWR $end
$var wire 1 ; Y $end
$var wire 1 A nand0_out_Y $end
$upscope $end
$scope module x2 $end
$var wire 1 3 A $end
$var wire 1 ; B $end
$var wire 1 B VGND $end
$var wire 1 C VNB $end
$var wire 1 D VPB $end
$var wire 1 E VPWR $end
$var wire 1 9 Y $end
$var wire 1 F nand0_out_Y $end
$upscope $end
$scope module x3 $end
$var wire 1 ; A $end
$var wire 1 4 B $end
$var wire 1 G VGND $end
$var wire 1 H VNB $end
$var wire 1 I VPB $end
$var wire 1 J VPWR $end
$var wire 1 8 Y $end
$var wire 1 K nand0_out_Y $end
$upscope $end
$scope module x4 $end
$var wire 1 9 A $end
$var wire 1 8 B $end
$var wire 1 L VGND $end
$var wire 1 M VNB $end
$var wire 1 N VPB $end
$var wire 1 O VPWR $end
$var wire 1 5 Y $end
$var wire 1 P nand0_out_Y $end
$upscope $end
$scope module x5 $end
$var wire 1 5 A $end
$var wire 1 % B $end
$var wire 1 Q VGND $end
$var wire 1 R VNB $end
$var wire 1 S VPB $end
$var wire 1 T VPWR $end
$var wire 1 : Y $end
$var wire 1 U nand0_out_Y $end
$upscope $end
$scope module x6 $end
$var wire 1 5 A $end
$var wire 1 : B $end
$var wire 1 V VGND $end
$var wire 1 W VNB $end
$var wire 1 X VPB $end
$var wire 1 Y VPWR $end
$var wire 1 7 Y $end
$var wire 1 Z nand0_out_Y $end
$upscope $end
$scope module x7 $end
$var wire 1 : A $end
$var wire 1 % B $end
$var wire 1 [ VGND $end
$var wire 1 \ VNB $end
$var wire 1 ] VPB $end
$var wire 1 ^ VPWR $end
$var wire 1 6 Y $end
$var wire 1 _ nand0_out_Y $end
$upscope $end
$scope module x8 $end
$var wire 1 7 A $end
$var wire 1 6 B $end
$var wire 1 ` VGND $end
$var wire 1 a VNB $end
$var wire 1 b VPB $end
$var wire 1 c VPWR $end
$var wire 1 < Y $end
$var wire 1 d nand0_out_Y $end
$upscope $end
$scope module x9 $end
$var wire 1 ; A $end
$var wire 1 : B $end
$var wire 1 e VGND $end
$var wire 1 f VNB $end
$var wire 1 g VPB $end
$var wire 1 h VPWR $end
$var wire 1 1 Y $end
$var wire 1 i nand0_out_Y $end
$upscope $end
$upscope $end
$scope module x2 $end
$var wire 1 j A $end
$var wire 1 k B $end
$var wire 1 1 Cin $end
$var wire 1 - GND $end
$var wire 1 . VDD $end
$var wire 1 l net5 $end
$var wire 1 m net4 $end
$var wire 1 n net3 $end
$var wire 1 o net2 $end
$var wire 1 p net1 $end
$var wire 1 q T2 $end
$var wire 1 r T1 $end
$var wire 1 s Sum $end
$var wire 1 0 Cout $end
$scope module x1 $end
$var wire 1 j A $end
$var wire 1 k B $end
$var wire 1 t VGND $end
$var wire 1 u VNB $end
$var wire 1 v VPB $end
$var wire 1 w VPWR $end
$var wire 1 r Y $end
$var wire 1 x nand0_out_Y $end
$upscope $end
$scope module x2 $end
$var wire 1 j A $end
$var wire 1 r B $end
$var wire 1 y VGND $end
$var wire 1 z VNB $end
$var wire 1 { VPB $end
$var wire 1 | VPWR $end
$var wire 1 p Y $end
$var wire 1 } nand0_out_Y $end
$upscope $end
$scope module x3 $end
$var wire 1 r A $end
$var wire 1 k B $end
$var wire 1 ~ VGND $end
$var wire 1 !" VNB $end
$var wire 1 "" VPB $end
$var wire 1 #" VPWR $end
$var wire 1 o Y $end
$var wire 1 $" nand0_out_Y $end
$upscope $end
$scope module x4 $end
$var wire 1 p A $end
$var wire 1 o B $end
$var wire 1 %" VGND $end
$var wire 1 &" VNB $end
$var wire 1 '" VPB $end
$var wire 1 (" VPWR $end
$var wire 1 l Y $end
$var wire 1 )" nand0_out_Y $end
$upscope $end
$scope module x5 $end
$var wire 1 l A $end
$var wire 1 1 B $end
$var wire 1 *" VGND $end
$var wire 1 +" VNB $end
$var wire 1 ," VPB $end
$var wire 1 -" VPWR $end
$var wire 1 q Y $end
$var wire 1 ." nand0_out_Y $end
$upscope $end
$scope module x6 $end
$var wire 1 l A $end
$var wire 1 q B $end
$var wire 1 /" VGND $end
$var wire 1 0" VNB $end
$var wire 1 1" VPB $end
$var wire 1 2" VPWR $end
$var wire 1 n Y $end
$var wire 1 3" nand0_out_Y $end
$upscope $end
$scope module x7 $end
$var wire 1 q A $end
$var wire 1 1 B $end
$var wire 1 4" VGND $end
$var wire 1 5" VNB $end
$var wire 1 6" VPB $end
$var wire 1 7" VPWR $end
$var wire 1 m Y $end
$var wire 1 8" nand0_out_Y $end
$upscope $end
$scope module x8 $end
$var wire 1 n A $end
$var wire 1 m B $end
$var wire 1 9" VGND $end
$var wire 1 :" VNB $end
$var wire 1 ;" VPB $end
$var wire 1 <" VPWR $end
$var wire 1 s Y $end
$var wire 1 =" nand0_out_Y $end
$upscope $end
$scope module x9 $end
$var wire 1 r A $end
$var wire 1 q B $end
$var wire 1 >" VGND $end
$var wire 1 ?" VNB $end
$var wire 1 @" VPB $end
$var wire 1 A" VPWR $end
$var wire 1 0 Y $end
$var wire 1 B" nand0_out_Y $end
$upscope $end
$upscope $end
$scope module x3 $end
$var wire 1 C" A $end
$var wire 1 D" B $end
$var wire 1 0 Cin $end
$var wire 1 - GND $end
$var wire 1 . VDD $end
$var wire 1 E" net5 $end
$var wire 1 F" net4 $end
$var wire 1 G" net3 $end
$var wire 1 H" net2 $end
$var wire 1 I" net1 $end
$var wire 1 J" T2 $end
$var wire 1 K" T1 $end
$var wire 1 L" Sum $end
$var wire 1 / Cout $end
$scope module x1 $end
$var wire 1 C" A $end
$var wire 1 D" B $end
$var wire 1 M" VGND $end
$var wire 1 N" VNB $end
$var wire 1 O" VPB $end
$var wire 1 P" VPWR $end
$var wire 1 K" Y $end
$var wire 1 Q" nand0_out_Y $end
$upscope $end
$scope module x2 $end
$var wire 1 C" A $end
$var wire 1 K" B $end
$var wire 1 R" VGND $end
$var wire 1 S" VNB $end
$var wire 1 T" VPB $end
$var wire 1 U" VPWR $end
$var wire 1 I" Y $end
$var wire 1 V" nand0_out_Y $end
$upscope $end
$scope module x3 $end
$var wire 1 K" A $end
$var wire 1 D" B $end
$var wire 1 W" VGND $end
$var wire 1 X" VNB $end
$var wire 1 Y" VPB $end
$var wire 1 Z" VPWR $end
$var wire 1 H" Y $end
$var wire 1 [" nand0_out_Y $end
$upscope $end
$scope module x4 $end
$var wire 1 I" A $end
$var wire 1 H" B $end
$var wire 1 \" VGND $end
$var wire 1 ]" VNB $end
$var wire 1 ^" VPB $end
$var wire 1 _" VPWR $end
$var wire 1 E" Y $end
$var wire 1 `" nand0_out_Y $end
$upscope $end
$scope module x5 $end
$var wire 1 E" A $end
$var wire 1 0 B $end
$var wire 1 a" VGND $end
$var wire 1 b" VNB $end
$var wire 1 c" VPB $end
$var wire 1 d" VPWR $end
$var wire 1 J" Y $end
$var wire 1 e" nand0_out_Y $end
$upscope $end
$scope module x6 $end
$var wire 1 E" A $end
$var wire 1 J" B $end
$var wire 1 f" VGND $end
$var wire 1 g" VNB $end
$var wire 1 h" VPB $end
$var wire 1 i" VPWR $end
$var wire 1 G" Y $end
$var wire 1 j" nand0_out_Y $end
$upscope $end
$scope module x7 $end
$var wire 1 J" A $end
$var wire 1 0 B $end
$var wire 1 k" VGND $end
$var wire 1 l" VNB $end
$var wire 1 m" VPB $end
$var wire 1 n" VPWR $end
$var wire 1 F" Y $end
$var wire 1 o" nand0_out_Y $end
$upscope $end
$scope module x8 $end
$var wire 1 G" A $end
$var wire 1 F" B $end
$var wire 1 p" VGND $end
$var wire 1 q" VNB $end
$var wire 1 r" VPB $end
$var wire 1 s" VPWR $end
$var wire 1 L" Y $end
$var wire 1 t" nand0_out_Y $end
$upscope $end
$scope module x9 $end
$var wire 1 K" A $end
$var wire 1 J" B $end
$var wire 1 u" VGND $end
$var wire 1 v" VNB $end
$var wire 1 w" VPB $end
$var wire 1 x" VPWR $end
$var wire 1 / Y $end
$var wire 1 y" nand0_out_Y $end
$upscope $end
$upscope $end
$scope module x4 $end
$var wire 1 z" A $end
$var wire 1 {" B $end
$var wire 1 / Cin $end
$var wire 1 - GND $end
$var wire 1 . VDD $end
$var wire 1 |" net5 $end
$var wire 1 }" net4 $end
$var wire 1 ~" net3 $end
$var wire 1 !# net2 $end
$var wire 1 "# net1 $end
$var wire 1 ## T2 $end
$var wire 1 $# T1 $end
$var wire 1 %# Sum $end
$var wire 1 " Cout $end
$scope module x1 $end
$var wire 1 z" A $end
$var wire 1 {" B $end
$var wire 1 &# VGND $end
$var wire 1 '# VNB $end
$var wire 1 (# VPB $end
$var wire 1 )# VPWR $end
$var wire 1 $# Y $end
$var wire 1 *# nand0_out_Y $end
$upscope $end
$scope module x2 $end
$var wire 1 z" A $end
$var wire 1 $# B $end
$var wire 1 +# VGND $end
$var wire 1 ,# VNB $end
$var wire 1 -# VPB $end
$var wire 1 .# VPWR $end
$var wire 1 "# Y $end
$var wire 1 /# nand0_out_Y $end
$upscope $end
$scope module x3 $end
$var wire 1 $# A $end
$var wire 1 {" B $end
$var wire 1 0# VGND $end
$var wire 1 1# VNB $end
$var wire 1 2# VPB $end
$var wire 1 3# VPWR $end
$var wire 1 !# Y $end
$var wire 1 4# nand0_out_Y $end
$upscope $end
$scope module x4 $end
$var wire 1 "# A $end
$var wire 1 !# B $end
$var wire 1 5# VGND $end
$var wire 1 6# VNB $end
$var wire 1 7# VPB $end
$var wire 1 8# VPWR $end
$var wire 1 |" Y $end
$var wire 1 9# nand0_out_Y $end
$upscope $end
$scope module x5 $end
$var wire 1 |" A $end
$var wire 1 / B $end
$var wire 1 :# VGND $end
$var wire 1 ;# VNB $end
$var wire 1 <# VPB $end
$var wire 1 =# VPWR $end
$var wire 1 ## Y $end
$var wire 1 ># nand0_out_Y $end
$upscope $end
$scope module x6 $end
$var wire 1 |" A $end
$var wire 1 ## B $end
$var wire 1 ?# VGND $end
$var wire 1 @# VNB $end
$var wire 1 A# VPB $end
$var wire 1 B# VPWR $end
$var wire 1 ~" Y $end
$var wire 1 C# nand0_out_Y $end
$upscope $end
$scope module x7 $end
$var wire 1 ## A $end
$var wire 1 / B $end
$var wire 1 D# VGND $end
$var wire 1 E# VNB $end
$var wire 1 F# VPB $end
$var wire 1 G# VPWR $end
$var wire 1 }" Y $end
$var wire 1 H# nand0_out_Y $end
$upscope $end
$scope module x8 $end
$var wire 1 ~" A $end
$var wire 1 }" B $end
$var wire 1 I# VGND $end
$var wire 1 J# VNB $end
$var wire 1 K# VPB $end
$var wire 1 L# VPWR $end
$var wire 1 %# Y $end
$var wire 1 M# nand0_out_Y $end
$upscope $end
$scope module x9 $end
$var wire 1 $# A $end
$var wire 1 ## B $end
$var wire 1 N# VGND $end
$var wire 1 O# VNB $end
$var wire 1 P# VPB $end
$var wire 1 Q# VPWR $end
$var wire 1 " Y $end
$var wire 1 R# nand0_out_Y $end
$upscope $end
$upscope $end
$upscope $end
$upscope $end
$enddefinitions $end
#0
$dumpvars
0R#
1Q#
1P#
0O#
0N#
0M#
1L#
1K#
0J#
0I#
1H#
1G#
1F#
0E#
0D#
1C#
1B#
1A#
0@#
0?#
1>#
1=#
1<#
0;#
0:#
09#
18#
17#
06#
05#
14#
13#
12#
01#
00#
1/#
1.#
1-#
0,#
0+#
1*#
1)#
1(#
0'#
0&#
0%#
1$#
1##
1"#
1!#
1~"
1}"
0|"
0{"
0z"
0y"
1x"
1w"
0v"
0u"
0t"
1s"
1r"
0q"
0p"
1o"
1n"
1m"
0l"
0k"
1j"
1i"
1h"
0g"
0f"
1e"
1d"
1c"
0b"
0a"
0`"
1_"
1^"
0]"
0\"
1["
1Z"
1Y"
0X"
0W"
1V"
1U"
1T"
0S"
0R"
1Q"
1P"
1O"
0N"
0M"
0L"
1K"
1J"
1I"
1H"
1G"
1F"
0E"
0D"
0C"
0B"
1A"
1@"
0?"
0>"
0="
1<"
1;"
0:"
09"
18"
17"
16"
05"
04"
13"
12"
11"
00"
0/"
1."
1-"
1,"
0+"
0*"
0)"
1("
1'"
0&"
0%"
1$"
1#"
1""
0!"
0~
1}
1|
1{
0z
0y
1x
1w
1v
0u
0t
0s
1r
1q
1p
1o
1n
1m
0l
0k
0j
0i
1h
1g
0f
0e
0d
1c
1b
0a
0`
1_
1^
1]
0\
0[
1Z
1Y
1X
0W
0V
1U
1T
1S
0R
0Q
0P
1O
1N
0M
0L
1K
1J
1I
0H
0G
1F
1E
1D
0C
0B
1A
1@
1?
0>
0=
0<
1;
1:
19
18
17
16
05
04
03
b0 2
01
00
0/
z.
z-
b0 ,
b0 +
b0 *
b0 )
b0 (
b0 '
bx &
0%
b0 $
b0 #
0"
b0 !
$end
#1000
b1 !
b1 2
1<
1d
06
0_
1%
b1 *
b0 &
#2000
07
0Z
15
b1 !
b1 2
1<
1P
1d
08
16
0K
1_
14
0%
b1 $
b1 ,
b1 )
b0 *
b1 &
#3000
1s
1="
b10 !
b10 2
0<
0m
0d
08"
17
11
1Z
1i
0:
16
0U
1_
1%
b1 *
#4000
0n
b10 !
b10 2
0<
1m
03"
0d
18"
05
1l
17
01
0P
1)"
1Z
0i
18
0o
1:
1K
0$"
1U
04
1k
0%
b10 $
b10 ,
b10 )
b0 *
b10 &
#5000
b11 !
b11 2
1<
1d
06
0_
1%
b1 *
#6000
07
0Z
15
b11 !
b11 2
1<
1P
1d
08
16
0K
1_
14
0%
b11 $
b11 ,
b11 )
b0 *
b11 &
#7000
1L"
1t"
0s
0F"
0="
0o"
1n
10
13"
1B"
b100 !
b100 2
0<
0q
1m
0d
0."
18"
17
11
1Z
1i
0:
16
0U
1_
1%
b1 *
#8000
0%#
0M#
1L"
1}"
1t"
1H#
1F"
0/
00
1o"
0y"
0B"
1J"
0G"
b100 !
b100 2
0<
1q
1e"
0j"
0d
1."
05
0l
1E"
17
01
0P
0)"
1`"
1Z
0i
18
1o
0H"
1:
1K
1$"
0["
1U
04
0k
1D"
0%
b100 $
b100 ,
b100 )
b0 *
b100 &
#9000
b101 !
b101 2
1<
1d
06
0_
1%
b1 *
#10000
07
0Z
15
b101 !
b101 2
1<
1P
1d
08
16
0K
1_
14
0%
b101 $
b101 ,
b101 )
b0 *
b101 &
#11000
1s
1="
b110 !
b110 2
0<
0m
0d
08"
17
11
1Z
1i
0:
16
0U
1_
1%
b1 *
#12000
0n
b110 !
b110 2
0<
1m
03"
0d
18"
05
1l
17
01
0P
1)"
1Z
0i
18
0o
1:
1K
0$"
1U
04
1k
0%
b110 $
b110 ,
b110 )
b0 *
b110 &
#13000
b111 !
b111 2
1<
1d
06
0_
1%
b1 *
#14000
07
0Z
15
b111 !
b111 2
1<
1P
1d
08
16
0K
1_
14
0%
b111 $
b111 ,
b111 )
b0 *
b111 &
#15000
1%#
1M#
0L"
0}"
0t"
0H#
1G"
1/
1j"
1y"
0s
0J"
1F"
0="
0e"
1o"
1n
10
13"
1B"
b1000 !
b1000 2
0<
0q
1m
0d
0."
18"
17
11
1Z
1i
0:
16
0U
1_
1%
b1 *
#16000
0L"
1%#
0t"
1M#
1F"
0/
1}"
0"
00
1o"
0y"
1H#
0R#
0B"
1J"
1##
0~"
b1000 !
b1000 2
0<
1q
1e"
1>#
0C#
0d
1."
05
0l
0E"
1|"
17
01
0P
0)"
0`"
19#
1Z
0i
18
1o
1H"
0!#
1:
1K
1$"
1["
04#
1U
04
0k
0D"
1{"
0%
b1000 $
b1000 ,
b1000 )
b0 *
b1000 &
#17000
b1001 !
b1001 2
1<
1d
06
0_
1%
b1 *
#18000
07
0Z
15
b1001 !
b1001 2
1<
1P
1d
08
16
0K
1_
14
0%
b1001 $
b1001 ,
b1001 )
b0 *
b1001 &
#19000
1s
1="
b1010 !
b1010 2
0<
0m
0d
08"
17
11
1Z
1i
0:
16
0U
1_
1%
b1 *
#20000
0n
b1010 !
b1010 2
0<
1m
03"
0d
18"
05
1l
17
01
0P
1)"
1Z
0i
18
0o
1:
1K
0$"
1U
04
1k
0%
b1010 $
b1010 ,
b1010 )
b0 *
b1010 &
#21000
b1011 !
b1011 2
1<
1d
06
0_
1%
b1 *
#22000
07
0Z
15
b1011 !
b1011 2
1<
1P
1d
08
16
0K
1_
14
0%
b1011 $
b1011 ,
b1011 )
b0 *
b1011 &
#23000
1L"
1t"
0s
0F"
0="
0o"
1n
10
13"
1B"
b1100 !
b1100 2
0<
0q
1m
0d
0."
18"
17
11
1Z
1i
0:
16
0U
1_
1%
b1 *
#24000
1%#
1M#
0~"
0"
0C#
0R#
1L"
1##
1}"
1t"
1>#
1H#
1F"
0/
00
1o"
0y"
0B"
1J"
0G"
b1100 !
b1100 2
0<
1q
1e"
0j"
0d
1."
05
0l
1E"
17
01
0P
0)"
1`"
1Z
0i
18
1o
0H"
1:
1K
1$"
0["
1U
04
0k
1D"
0%
b1100 $
b1100 ,
b1100 )
b0 *
b1100 &
#25000
b1101 !
b1101 2
1<
1d
06
0_
1%
b1 *
#26000
07
0Z
15
b1101 !
b1101 2
1<
1P
1d
08
16
0K
1_
14
0%
b1101 $
b1101 ,
b1101 )
b0 *
b1101 &
#27000
1s
1="
b1110 !
b1110 2
0<
0m
0d
08"
17
11
1Z
1i
0:
16
0U
1_
1%
b1 *
#28000
0n
b1110 !
b1110 2
0<
1m
03"
0d
18"
05
1l
17
01
0P
1)"
1Z
0i
18
0o
1:
1K
0$"
1U
04
1k
0%
b1110 $
b1110 ,
b1110 )
b0 *
b1110 &
#29000
b1111 !
b1111 2
1<
1d
06
0_
1%
b1 *
#30000
07
0Z
15
b1111 !
b1111 2
1<
1P
1d
08
16
0K
1_
14
0%
b1111 $
b1111 ,
b1111 )
b0 *
b1111 &
#31000
0%#
0M#
1~"
1"
1C#
1R#
0L"
0##
1}"
0t"
0>#
1H#
1G"
1/
1j"
1y"
0s
0J"
1F"
0="
0e"
1o"
1n
10
13"
1B"
b0 !
b0 2
0<
0q
1m
0d
0."
18"
17
11
1Z
1i
0:
16
0U
1_
1%
b1 *
#32000
0L"
0%#
0t"
0M#
1F"
0/
1}"
0"
00
1o"
0y"
1H#
0R#
0B"
1J"
1##
b1 !
b1 2
1<
1q
1e"
1>#
1d
1."
0l
0E"
0|"
07
01
0)"
0`"
09#
0Z
0i
18
1o
1H"
1!#
09
1:
1K
1$"
1["
14#
0F
1U
04
0k
0D"
0{"
13
0%
b0 $
b0 ,
b1 #
b1 +
b1 (
b0 )
b0 *
b10000 &
#33000
1s
1="
b10 !
b10 2
0<
0m
0d
08"
17
11
1Z
1i
0:
16
0U
1_
1%
b1 *
b1 &
#34000
05
b10 !
b10 2
0<
0P
0d
19
17
1F
1Z
0;
18
1:
0A
1K
1U
14
0%
b1 $
b1 ,
b1 )
b0 *
b10 &
#35000
b11 !
b11 2
1<
1d
06
0_
1%
b1 *
#36000
07
0Z
15
1m
0n
1P
18"
03"
09
01
1l
b11 !
b11 2
1<
0F
0i
1)"
1d
1;
0o
16
1A
0$"
1_
04
1k
0%
b10 $
b10 ,
b10 )
b0 *
b11 &
#37000
1L"
1t"
0s
0F"
0="
0o"
1n
10
13"
1B"
b100 !
b100 2
0<
0q
1m
0d
0."
18"
17
11
1Z
1i
0:
16
0U
1_
1%
b1 *
#38000
05
b100 !
b100 2
0<
0P
0d
19
17
1F
1Z
0;
18
1:
0A
1K
1U
14
0%
b11 $
b11 ,
b11 )
b0 *
b100 &
#39000
b101 !
b101 2
1<
1d
06
0_
1%
b1 *
#40000
0%#
0M#
1L"
1}"
1t"
1H#
07
00
1F"
0/
0Z
0B"
1o"
0y"
15
1q
1J"
0G"
1P
1."
1e"
0j"
09
01
0l
1E"
b101 !
b101 2
1<
0F
0i
0)"
1`"
1d
1;
1o
0H"
16
1A
1$"
0["
1_
04
0k
1D"
0%
b100 $
b100 ,
b100 )
b0 *
b101 &
#41000
1s
1="
b110 !
b110 2
0<
0m
0d
08"
17
11
1Z
1i
0:
16
0U
1_
1%
b1 *
#42000
05
b110 !
b110 2
0<
0P
0d
19
17
1F
1Z
0;
18
1:
0A
1K
1U
14
0%
b101 $
b101 ,
b101 )
b0 *
b110 &
#43000
b111 !
b111 2
1<
1d
06
0_
1%
b1 *
#44000
07
0Z
15
1m
0n
1P
18"
03"
09
01
1l
b111 !
b111 2
1<
0F
0i
1)"
1d
1;
0o
16
1A
0$"
1_
04
1k
0%
b110 $
b110 ,
b110 )
b0 *
b111 &
#45000
1%#
1M#
0L"
0}"
0t"
0H#
1G"
1/
1j"
1y"
0s
0J"
1F"
0="
0e"
1o"
1n
10
13"
1B"
b1000 !
b1000 2
0<
0q
1m
0d
0."
18"
17
11
1Z
1i
0:
16
0U
1_
1%
b1 *
#46000
05
b1000 !
b1000 2
0<
0P
0d
19
17
1F
1Z
0;
18
1:
0A
1K
1U
14
0%
b111 $
b111 ,
b111 )
b0 *
b1000 &
#47000
b1001 !
b1001 2
1<
1d
06
0_
1%
b1 *
#48000
0L"
1%#
0t"
1M#
07
00
1F"
0/
1}"
0"
0Z
0B"
1o"
0y"
1H#
0R#
15
1q
1J"
1##
0~"
1P
1."
1e"
1>#
0C#
09
01
0l
0E"
1|"
b1001 !
b1001 2
1<
0F
0i
0)"
0`"
19#
1d
1;
1o
1H"
0!#
16
1A
1$"
1["
04#
1_
04
0k
0D"
1{"
0%
b1000 $
b1000 ,
b1000 )
b0 *
b1001 &
#49000
1s
1="
b1010 !
b1010 2
0<
0m
0d
08"
17
11
1Z
1i
0:
16
0U
1_
1%
b1 *
#50000
05
b1010 !
b1010 2
0<
0P
0d
19
17
1F
1Z
0;
18
1:
0A
1K
1U
14
0%
b1001 $
b1001 ,
b1001 )
b0 *
b1010 &
#51000
b1011 !
b1011 2
1<
1d
06
0_
1%
b1 *
#52000
07
0Z
15
1m
0n
1P
18"
03"
09
01
1l
b1011 !
b1011 2
1<
0F
0i
1)"
1d
1;
0o
16
1A
0$"
1_
04
1k
0%
b1010 $
b1010 ,
b1010 )
b0 *
b1011 &
#53000
1L"
1t"
0s
0F"
0="
0o"
1n
10
13"
1B"
b1100 !
b1100 2
0<
0q
1m
0d
0."
18"
17
11
1Z
1i
0:
16
0U
1_
1%
b1 *
#54000
05
b1100 !
b1100 2
0<
0P
0d
19
17
1F
1Z
0;
18
1:
0A
1K
1U
14
0%
b1011 $
b1011 ,
b1011 )
b0 *
b1100 &
#55000
b1101 !
b1101 2
1<
1d
06
0_
1%
b1 *
#56000
1%#
1M#
0~"
0"
0C#
0R#
1L"
1##
1}"
1t"
1>#
1H#
07
00
1F"
0/
0Z
0B"
1o"
0y"
15
1q
1J"
0G"
1P
1."
1e"
0j"
09
01
0l
1E"
b1101 !
b1101 2
1<
0F
0i
0)"
1`"
1d
1;
1o
0H"
16
1A
1$"
0["
1_
04
0k
1D"
0%
b1100 $
b1100 ,
b1100 )
b0 *
b1101 &
#57000
1s
1="
b1110 !
b1110 2
0<
0m
0d
08"
17
11
1Z
1i
0:
16
0U
1_
1%
b1 *
#58000
05
b1110 !
b1110 2
0<
0P
0d
19
17
1F
1Z
0;
18
1:
0A
1K
1U
14
0%
b1101 $
b1101 ,
b1101 )
b0 *
b1110 &
#59000
b1111 !
b1111 2
1<
1d
06
0_
1%
b1 *
#60000
07
0Z
15
1m
0n
1P
18"
03"
09
01
1l
b1111 !
b1111 2
1<
0F
0i
1)"
1d
1;
0o
16
1A
0$"
1_
04
1k
0%
b1110 $
b1110 ,
b1110 )
b0 *
b1111 &
#61000
0%#
0M#
1~"
1"
1C#
1R#
0L"
0##
1}"
0t"
0>#
1H#
1G"
1/
1j"
1y"
0s
0J"
1F"
0="
0e"
1o"
1n
10
13"
1B"
b0 !
b0 2
0<
0q
1m
0d
0."
18"
17
11
1Z
1i
0:
16
0U
1_
1%
b1 *
#62000
05
b0 !
b0 2
0<
0P
0d
19
17
1F
1Z
0;
18
1:
0A
1K
1U
14
0%
b1111 $
b1111 ,
b1111 )
b0 *
b10000 &
#63000
b1 !
b1 2
1<
1d
06
0_
1%
b1 *
#64000
0L"
0%#
1s
0t"
0M#
1="
1F"
0/
1}"
0"
0n
00
1o"
0y"
1H#
0R#
03"
0B"
1J"
1##
1q
1e"
1>#
1."
0E"
0|"
01
b10 !
b10 2
0<
0`"
09#
0i
0d
1o
1H"
1!#
1;
0p
16
1$"
1["
14#
1A
0}
1_
04
0k
0D"
0{"
03
1j
0%
b0 $
b0 ,
b10 #
b10 +
b10 (
b0 )
b0 *
b10001 &
#65000
b11 !
b11 2
1<
1d
06
0_
1%
b1 *
b10 &
#66000
07
0Z
15
b11 !
b11 2
1<
1P
1d
08
16
0K
1_
14
0%
b1 $
b1 ,
b1 )
b0 *
b11 &
#67000
1L"
1t"
0s
0F"
0="
0o"
1n
10
13"
1B"
b100 !
b100 2
0<
0q
1m
0d
0."
18"
17
11
1Z
1i
0:
16
0U
1_
1%
b1 *
#68000
0l
b100 !
b100 2
0<
1q
0)"
0d
1."
05
1p
17
01
0P
1}
1Z
0i
18
0r
1o
1:
1K
0x
1$"
1U
04
1k
0%
b10 $
b10 ,
b10 )
b0 *
b100 &
#69000
b101 !
b101 2
1<
1d
06
0_
1%
b1 *
#70000
07
0Z
15
b101 !
b101 2
1<
1P
1d
08
16
0K
1_
14
0%
b11 $
b11 ,
b11 )
b0 *
b101 &
#71000
1s
1="
b110 !
b110 2
0<
0m
0d
08"
17
11
1Z
1i
0:
16
0U
1_
1%
b1 *
#72000
0n
1s
03"
1="
1l
1F"
0G"
b110 !
b110 2
0<
1m
1)"
1o"
0j"
0d
18"
05
0p
00
1E"
17
01
0P
0}
0B"
1`"
1Z
0i
18
1r
0H"
1:
1K
1x
0["
1U
04
0k
1D"
0%
b100 $
b100 ,
b100 )
b0 *
b110 &
#73000
b111 !
b111 2
1<
1d
06
0_
1%
b1 *
#74000
07
0Z
15
b111 !
b111 2
1<
1P
1d
08
16
0K
1_
14
0%
b101 $
b101 ,
b101 )
b0 *
b111 &
#75000
1%#
1M#
0L"
0}"
0t"
0H#
1G"
1/
1j"
1y"
0s
0J"
1F"
0="
0e"
1o"
1n
10
13"
1B"
b1000 !
b1000 2
0<
0q
1m
0d
0."
18"
17
11
1Z
1i
0:
16
0U
1_
1%
b1 *
#76000
0l
b1000 !
b1000 2
0<
1q
0)"
0d
1."
05
1p
17
01
0P
1}
1Z
0i
18
0r
1o
1:
1K
0x
1$"
1U
04
1k
0%
b110 $
b110 ,
b110 )
b0 *
b1000 &
#77000
b1001 !
b1001 2
1<
1d
06
0_
1%
b1 *
#78000
07
0Z
15
b1001 !
b1001 2
1<
1P
1d
08
16
0K
1_
14
0%
b111 $
b111 ,
b111 )
b0 *
b1001 &
#79000
1s
1="
b1010 !
b1010 2
0<
0m
0d
08"
17
11
1Z
1i
0:
16
0U
1_
1%
b1 *
#80000
1%#
1M#
0n
0/
1}"
0"
1s
03"
0y"
1H#
0R#
1="
1l
1J"
1##
0~"
b1010 !
b1010 2
0<
1m
1)"
1e"
1>#
0C#
0d
18"
05
0p
00
0E"
1|"
17
01
0P
0}
0B"
0`"
19#
1Z
0i
18
1r
1H"
0!#
1:
1K
1x
1["
04#
1U
04
0k
0D"
1{"
0%
b1000 $
b1000 ,
b1000 )
b0 *
b1010 &
#81000
b1011 !
b1011 2
1<
1d
06
0_
1%
b1 *
#82000
07
0Z
15
b1011 !
b1011 2
1<
1P
1d
08
16
0K
1_
14
0%
b1001 $
b1001 ,
b1001 )
b0 *
b1011 &
#83000
1L"
1t"
0s
0F"
0="
0o"
1n
10
13"
1B"
b1100 !
b1100 2
0<
0q
1m
0d
0."
18"
17
11
1Z
1i
0:
16
0U
1_
1%
b1 *
#84000
0l
b1100 !
b1100 2
0<
1q
0)"
0d
1."
05
1p
17
01
0P
1}
1Z
0i
18
0r
1o
1:
1K
0x
1$"
1U
04
1k
0%
b1010 $
b1010 ,
b1010 )
b0 *
b1100 &
#85000
b1101 !
b1101 2
1<
1d
06
0_
1%
b1 *
#86000
07
0Z
15
b1101 !
b1101 2
1<
1P
1d
08
16
0K
1_
14
0%
b1011 $
b1011 ,
b1011 )
b0 *
b1101 &
#87000
1s
1="
b1110 !
b1110 2
0<
0m
0d
08"
17
11
1Z
1i
0:
16
0U
1_
1%
b1 *
